Going to AUB: 
33.901125,35.48158
33.780003,35.531845,true,7:30,8:20
33.780003,35.531845,true,7:45,8:35
33.780003,35.531845,true,7:30,8:35
33.833064,35.531158,true,8:00,8:35
33.767732,35.570984,true,7:20,8:35
33.728052,35.569611,true,7:30,8:20
33.803115,35.588837,true,8:10,8:50
33.820801,35.528755,true,8:00,8:50
33.859868,35.501289,true,7:30,8:35
33.857872,35.553818,true,8:10,8:50
33.832494,35.570297,true,7:45,8:35
33.767732,35.629692,true,7:30,8:20
33.827646,35.628662,true,7:50,8:35
33.852455,35.666084,true,7:30,8:35
33.884097,35.632782,true,7:20,8:35
33.903191,35.572357,true,7:30,8:40
33.900769,35.607204,true,8:00,8:50
33.916725,35.583858,true,7:30,8:20
33.931112,35.588322,true,7:20,8:35
33.92513,35.613041,true,8:10,8:50
33.917723,35.639992,true,7:20,8:35
33.940797,35.610981,true,8:10,8:50
33.939372,35.59124,true,8:00,8:50
33.955179,35.595188,true,7:30,8:20
33.954894,35.614758,true,7:20,8:35
33.925984,35.667629,true,7:20,8:35
33.929545,35.625916,true,8:00,8:50
33.955037,35.639305,true,8:00,8:50
33.974399,35.613728,true,7:30,8:20
33.983225,35.626431,true,8:00,8:50
33.975965,35.617676,false,7:20,8:35
33.942078,35.611839,false,7:30,8:20
33.921569,35.58918,false,8:00,8:50
33.921569,35.58918,false,7:20,8:35
33.89564,35.540257,false,8:10,8:50
33.898632,35.504723,false,7:20,8:35
33.886947,35.475197,false,7:30,8:35
33.849746,35.484638,false,7:30,8:20
33.832494,35.543861,false,8:10,8:50
33.859012,35.559826,false,7:30,8:20
33.91758,35.585575,false,7:20,8:35

Going to LAU Byblos:
34.115713,35.672607 
34.255798,35.664711,true,7:30,8:35
34.234229,35.693893,true,7:30,8:35
34.213506,35.655441,true,7:30,8:20
34.196469,35.641365,true,8:00,8:50
34.174033,35.633812,true,8:10,8:50
34.144203,35.643768,true,7:30,8:20
34.080247,35.734062,true,7:20,8:35
34.090767,35.652351,true,8:00,8:50
34.046686,35.635529,true,8:10,8:50
34.004289,35.648918,true,7:20,8:35
33.966712,35.678787,true,8:10,8:50
33.979524,35.70385,true,7:45,8:40
33.947062,35.675011,true,7:30,8:20
33.953043,35.634499,true,7:20,8:35
33.925984,35.586777,true,8:10,8:50
33.891792,35.626259,true,7:45,8:40
33.894357,35.549011,true,7:30,8:20
33.86728,35.6036,true,7:20,8:35
33.897207,35.509186,true,7:20,8:35
33.864144,35.489616,true,8:00,8:50
33.835061,35.530472,true,7:30,8:20
33.847893,35.486526,true,7:45,8:40
34.015957,35.667458,true,7:20,8:35
33.976677,35.652008,true,7:45,8:40
33.930827,35.616646,true,7:20,8:35
33.982371,35.703506,true,7:30,8:20
34.019372,35.694923,true,8:00,8:50
34.035022,35.667114,true,8:00,8:50
34.135394,35.666084,true,8:10,8:50
34.120616,35.652008,false,7:45,8:40
34.178293,35.637589,false,7:30,8:20
34.064037,35.644798,false,7:45,8:40
33.981802,35.619049,false,7:20,8:35
33.951619,35.610466,false,7:30,8:20
33.932821,35.587807,false,8:00,8:50
33.963864,35.622826,false,7:20,8:35
33.980378,35.645142,false,7:20,8:35
34.01738,35.653725,false,8:10,8:50
34.019372,35.634842,false,8:00,8:50

Going to NDU Louaize:
33.951512,35.618577
34.144487,35.633812,true,7:30,8:20
34.124311,35.648575,true,7:45,8:40
34.112373,35.663338,true,8:10,8:50
34.091905,35.660591,true,8:00,8:50
34.076834,35.665398,true,7:30,8:20
34.050668,35.660248,true,8:00,8:50
34.018234,35.69149,true,8:10,8:50
34.010835,35.659904,true,7:30,8:20
33.984364,35.674324,true,7:45,8:40
34.001443,35.70076,true,8:00,8:50
33.982086,35.657158,true,8:10,8:50
33.965858,35.632782,true,8:10,8:50
33.949341,35.675354,true,7:30,8:20
33.934815,35.610809,true,8:10,8:50
33.92456,35.58506,true,7:20,8:35
33.916868,35.639648,true,7:45,8:40
33.902051,35.604286,true,7:20,8:35
33.895212,35.570984,true,7:30,8:20
33.899772,35.521202,true,7:30,8:20
33.902051,35.493393,true,8:00,8:50
33.876972,35.538368,true,7:45,8:40
33.863574,35.583687,true,7:20,8:35
33.890937,35.5933,true,8:00,8:50
33.858727,35.562744,true,8:10,8:50
33.903476,35.650978,true,8:00,8:50
33.954467,35.645485,true,7:45,8:40
33.968135,35.696297,true,8:10,8:50
33.795412,35.48584,true,7:45,8:40
33.880392,35.526009,false,7:30,8:20
33.912879,35.57785,false,7:30,8:20
33.93396,35.590553,false,8:10,8:50
33.930542,35.616989,false,8:00,8:50
33.953043,35.59536,false,7:30,8:20
33.953043,35.639305,false,7:20,8:35
33.978101,35.615959,false,7:20,8:35
34.002012,35.645142,false,8:00,8:50
33.98351,35.667801,false,7:20,8:35
34.094179,35.651665,false,7:30,8:20


Going to LAU Beirut Campus:
33.892915,35.477965
33.612332,35.603256,true,7:30,8:20
33.674069,35.553818,true,8:10,8:50
33.71463,35.509872,true,7:45,8:40
33.757457,35.520172,true,8:10,8:50
33.804256,35.488586,true,7:30,8:20
33.85274,35.515366,true,7:20,8:35
33.827075,35.582657,true,8:10,8:50
33.888087,35.536652,true,8:00,8:50
33.913164,35.579224,true,7:30,8:20
33.884667,35.636902,true,8:10,8:50
33.931397,35.585403,true,7:30,8:20
33.963864,35.630722,true,7:20,8:35
34.004858,35.650635,true,8:10,8:50
33.975253,35.619049,true,7:20,8:35
33.885807,35.641708,true,7:20,8:35
33.861863,35.58815,true,7:45,8:40
33.850459,35.547638,true,7:20,8:35
33.807679,35.59639,true,8:10,8:50
33.856161,35.638962,true,7:20,8:35
33.828216,35.534592,true,8:00,8:50
33.927978,35.583344,true,8:10,8:50
33.967851,35.658188,true,7:30,8:20
33.859583,35.526352,true,8:00,8:50
33.840194,35.49408,true,7:30,8:20
34.033315,35.69252,true,8:00,8:50
33.810532,35.652008,true,7:45,8:40
33.860723,35.542145,true,7:30,8:20
33.828787,35.617676,true,8:10,8:50
33.732906,35.460434,true,8:10,8:50
33.844186,35.624542,true,8:00,8:50
33.80825,35.49202,true,7:45,8:40
33.894357,35.638962,true,7:30,8:20
33.944499,35.612869,true,8:00,8:50
33.79855,35.484467,false,8:10,8:50
33.857302,35.523605,false,8:10,8:50
33.913734,35.59639,false,7:20,8:35
33.958169,35.621796,false,7:30,8:20
33.835631,35.606689,false,8:10,8:50
33.799121,35.495453,false,7:45,8:40
33.85274,35.509872,false,7:30,8:20
33.893787,35.493393,false,8:10,8:50
33.889227,35.561371,false,7:30,8:20












